{
    "swagger": "2.0",
    "info": {
        "description": "This is a sample server celler server.",
        "title": "Nunu Example API",
        "termsOfService": "http://swagger.io/terms/",
        "contact": {
            "name": "API Support",
            "url": "http://www.swagger.io/support",
            "email": "support@swagger.io"
        },
        "license": {
            "name": "Apache 2.0",
            "url": "http://www.apache.org/licenses/LICENSE-2.0.html"
        },
        "version": "1.0.0"
    },
    "host": "localhost:8000",
    "paths": {
        "/login": {
            "post": {
                "consumes": [
                    "application/json"
                ],
                "produces": [
                    "application/json"
                ],
                "tags": [
                    "用户模块"
                ],
                "summary": "账号登录",
                "parameters": [
                    {
                        "description": "params",
                        "name": "request",
                        "in": "body",
                        "required": true,
                        "schema": {
                            "$ref": "#/definitions/advanced-api-serverv1_api_v1.LoginRequest"
                        }
                    }
                ],
                "responses": {
                    "200": {
                        "description": "OK",
                        "schema": {
                            "$ref": "#/definitions/advanced-api-serverv1_api_v1.LoginResponse"
                        }
                    }
                }
            }
        },
        "/register": {
            "post": {
                "description": "目前只支持邮箱登录",
                "consumes": [
                    "application/json"
                ],
                "produces": [
                    "application/json"
                ],
                "tags": [
                    "用户模块"
                ],
                "summary": "用户注册",
                "parameters": [
                    {
                        "description": "params",
                        "name": "request",
                        "in": "body",
                        "required": true,
                        "schema": {
                            "$ref": "#/definitions/advanced-api-serverv1_api_v1.RegisterRequest"
                        }
                    }
                ],
                "responses": {
                    "200": {
                        "description": "OK",
                        "schema": {
                            "$ref": "#/definitions/advanced-api-serverv1_api_v1.Response"
                        }
                    }
                }
            }
        },
        "/user": {
            "get": {
                "security": [
                    {
                        "Bearer": []
                    }
                ],
                "consumes": [
                    "application/json"
                ],
                "produces": [
                    "application/json"
                ],
                "tags": [
                    "用户模块"
                ],
                "summary": "获取用户信息",
                "responses": {
                    "200": {
                        "description": "OK",
                        "schema": {
                            "$ref": "#/definitions/advanced-api-serverv1_api_v1.GetProfileResponse"
                        }
                    }
                }
            }
        }
    },
    "definitions": {
        "advanced-api-serverv1_api_v1.GetProfileResponse": {
            "type": "object",
            "properties": {
                "code": {
                    "type": "integer"
                },
                "data": {
                    "$ref": "#/definitions/advanced-api-serverv1_api_v1.GetProfileResponseData"
                },
                "message": {
                    "type": "string"
                }
            }
        },
        "advanced-api-serverv1_api_v1.GetProfileResponseData": {
            "type": "object",
            "properties": {
                "nickname": {
                    "type": "string",
                    "example": "alan"
                },
                "userId": {
                    "type": "string"
                }
            }
        },
        "advanced-api-serverv1_api_v1.LoginRequest": {
            "type": "object",
            "required": [
                "email",
                "password"
            ],
            "properties": {
                "email": {
                    "type": "string",
                    "example": "1234@gmail.com"
                },
                "password": {
                    "type": "string",
                    "example": "123456"
                }
            }
        },
        "advanced-api-serverv1_api_v1.LoginResponse": {
            "type": "object",
            "properties": {
                "code": {
                    "type": "integer"
                },
                "data": {
                    "$ref": "#/definitions/advanced-api-serverv1_api_v1.LoginResponseData"
                },
                "message": {
                    "type": "string"
                }
            }
        },
        "advanced-api-serverv1_api_v1.LoginResponseData": {
            "type": "object",
            "properties": {
                "accessToken": {
                    "type": "string"
                }
            }
        },
        "advanced-api-serverv1_api_v1.RegisterRequest": {
            "type": "object",
            "required": [
                "email",
                "password",
                "username"
            ],
            "properties": {
                "email": {
                    "type": "string",
                    "example": "1234@gmail.com"
                },
                "password": {
                    "type": "string",
                    "example": "123456"
                },
                "username": {
                    "type": "string",
                    "example": "alan"
                }
            }
        },
        "advanced-api-serverv1_api_v1.Response": {
            "type": "object",
            "properties": {
                "code": {
                    "type": "integer"
                },
                "data": {},
                "message": {
                    "type": "string"
                }
            }
        }
    },
    "securityDefinitions": {
        "Bearer": {
            "type": "apiKey",
            "name": "Authorization",
            "in": "header"
        }
    }
}